\relax 
\citation{Kirane2008}
\citation{Kirane2008,Anahid2013,Ozturk2017}
\@writefile{toc}{\contentsline {section}{\numberline {1}Introduction}{1}}
\citation{Sinha2006,Pilchak2011,Pilchak2014,Sinha2017}
\citation{Sinha2017}
\citation{Anahid2013,Pilchak2014}
\citation{Pilchak2011}
\citation{Sinha2006}
\citation{Kartal2014}
\citation{Kirane2008,Kirane2009}
\citation{Anahid2013}
\citation{Przybyla2011}
\citation{Anahid2013}
\citation{Anahid2011,Anahid2013}
\citation{Dunne2007b}
\citation{Mcdowell2007}
\citation{McDowell2010}
\citation{Kirane2008}
\citation{Anahid2011}
\citation{Liu2018}
\citation{Liu2018,Zhang2015,Zhang2017}
\citation{Dvorak:1992a}
\@writefile{toc}{\contentsline {section}{\numberline {2}Multiscale modeling approach}{3}}
\newlabel{MacroScaleEquilibrium}{{1}{3}}
\citation{Dvorak:1992a}
\newlabel{ROMConsti}{{2}{4}}
\citation{Zhang2015,Zhang2017,Liu2018}
\newlabel{inelasticstrainrate}{{4}{5}}
\newlabel{shearrate}{{5}{5}}
\newlabel{hardening}{{6}{5}}
\citation{Sinha2006,Pilchak2011,Pilchak2014,Sinha2017}
\citation{Liu2018,Ardeljan2014}
\citation{Sinha2017,Pilchak2014}
\citation{Liu2018}
\@writefile{toc}{\contentsline {section}{\numberline {3}Fatigue crack nucleation parameters}{6}}
\newlabel{StrengthDecom}{{7}{6}}
\newlabel{Sfor}{{8}{6}}
\newlabel{Sdeb}{{9}{6}}
\newlabel{ptot}{{10}{6}}
\citation{Pilchak2011}
\citation{McDowell2010,Dunne2007b}
\newlabel{R1}{{11}{7}}
\@writefile{lof}{\contentsline {figure}{\numberline {1}{\ignorespaces \relax \fontsize  {10.95}{13.6}\selectfont  \abovedisplayskip 11\p@ plus3\p@ minus6\p@ \abovedisplayshortskip \z@ plus3\p@ \belowdisplayshortskip 6.5\p@ plus3.5\p@ minus3\p@ \def \leftmargin \leftmargini \parsep 5\p@ plus2.5\p@ minus\p@ \topsep 10\p@ plus4\p@ minus6\p@ \itemsep 5\p@ plus2.5\p@ minus\p@ {\leftmargin \leftmargini \topsep 9\p@ plus3\p@ minus5\p@ \parsep 4.5\p@ plus2\p@ minus\p@ \itemsep \parsep }\belowdisplayskip \abovedisplayskip (a) Identification strategy of potential crack initiation sites under cyclic loading; (b) schematic illustration of identifying neighboring grains according to adjacent nodes and capturing crack initiation facet at both micro- and macro-scale.\relax }}{8}}
\providecommand*\caption@xref[2]{\@setref\relax\@undefined{#1}}
\newlabel{strategy}{{1}{8}}
\citation{Kirane2008}
\citation{Kirane2008}
\citation{Kirane2008}
\citation{Kirane2008}
\citation{Fatemi1988}
\citation{McDowell2005}
\newlabel{simpleR3}{{17}{10}}
\newlabel{R4}{{20}{10}}
\citation{Fatemi1988}
\citation{Anahid2011,Dunne2007}
\citation{Mcdowell2007}
\citation{McDowell2010}
\citation{Zhang2016b,Phan2017,Hu2016,Liu2018b}
\citation{Liu2018}
\citation{Gockel2016}
\citation{Gockel2016}
\newlabel{R4}{{21}{11}}
\citation{Gockel2016}
\citation{Sinha2017,Pilchak2014,Pilchak2013}
\@writefile{toc}{\contentsline {section}{\numberline {4}Numerical results and discussion}{12}}
\@writefile{lof}{\contentsline {figure}{\numberline {2}{\ignorespaces \relax \fontsize  {10.95}{13.6}\selectfont  \abovedisplayskip 11\p@ plus3\p@ minus6\p@ \abovedisplayshortskip \z@ plus3\p@ \belowdisplayshortskip 6.5\p@ plus3.5\p@ minus3\p@ \def \leftmargin \leftmargini \parsep 5\p@ plus2.5\p@ minus\p@ \topsep 10\p@ plus4\p@ minus6\p@ \itemsep 5\p@ plus2.5\p@ minus\p@ {\leftmargin \leftmargini \topsep 9\p@ plus3\p@ minus5\p@ \parsep 4.5\p@ plus2\p@ minus\p@ \itemsep \parsep }\belowdisplayskip \abovedisplayskip A L-shape plate of Ti-6242S under strain controlled cyclic loading: (a) geometry and loading condition of the plate; (b) finite element mesh with the partition of panel corner using 0.5-mesh-size discretization; (c) displacement-controlled loading history; (d) 145-grain statistical RVE.\relax }}{12}}
\newlabel{structural-geometry}{{2}{12}}
\@writefile{lof}{\contentsline {figure}{\numberline {3}{\ignorespaces \relax \fontsize  {10.95}{13.6}\selectfont  \abovedisplayskip 11\p@ plus3\p@ minus6\p@ \abovedisplayshortskip \z@ plus3\p@ \belowdisplayshortskip 6.5\p@ plus3.5\p@ minus3\p@ \def \leftmargin \leftmargini \parsep 5\p@ plus2.5\p@ minus\p@ \topsep 10\p@ plus4\p@ minus6\p@ \itemsep 5\p@ plus2.5\p@ minus\p@ {\leftmargin \leftmargini \topsep 9\p@ plus3\p@ minus5\p@ \parsep 4.5\p@ plus2\p@ minus\p@ \itemsep \parsep }\belowdisplayskip \abovedisplayskip The macroscale distribution of all four crack initiation variables as they reach the historical maximum value under displacement load of $u_{\text  {min}}/u_{\text  {max}}=-1$: (a) maximum total dislocation density $R_1$; (b) accumulated plastic strain $R_2$; (c) mixed-mode fracture based $R_3$; (d) Fatemi-Socie parameter $R_4$.\relax }}{13}}
\newlabel{macro-compare}{{3}{13}}
\@writefile{lof}{\contentsline {figure}{\numberline {4}{\ignorespaces \relax \fontsize  {10.95}{13.6}\selectfont  \abovedisplayskip 11\p@ plus3\p@ minus6\p@ \abovedisplayshortskip \z@ plus3\p@ \belowdisplayshortskip 6.5\p@ plus3.5\p@ minus3\p@ \def \leftmargin \leftmargini \parsep 5\p@ plus2.5\p@ minus\p@ \topsep 10\p@ plus4\p@ minus6\p@ \itemsep 5\p@ plus2.5\p@ minus\p@ {\leftmargin \leftmargini \topsep 9\p@ plus3\p@ minus5\p@ \parsep 4.5\p@ plus2\p@ minus\p@ \itemsep \parsep }\belowdisplayskip \abovedisplayskip Time history of criteria and mechanical variables when $u_{\text  {min}}/u_{\text  {max}}=-1$: (a) maximum total dislocation density $R_1$ compared with mixed-mode fracture based $R_2$; (b) $R_1$ compared with accumulated plastic strain $R_3$; (c) $R_1$ compared with accumulated plastic strain $R_4$; (d) Evolution of effective stress and the maximum plastic strain at the position 1\relax }}{13}}
\newlabel{compare-1}{{4}{13}}
\citation{Kirane2008}
\citation{Gockel2016}
\citation{Kirane2008}
\citation{Pilchak2011}
\citation{Gockel2016}
\citation{Gockel2016}
\citation{Pilchak2013,Pilchak2016}
\citation{Pilchak2013,Pilchak2016}
\citation{Sinha2006,Ozturk2017}
\citation{Kirane2008}
\@writefile{lof}{\contentsline {figure}{\numberline {5}{\ignorespaces \relax \fontsize  {10.95}{13.6}\selectfont  \abovedisplayskip 11\p@ plus3\p@ minus6\p@ \abovedisplayshortskip \z@ plus3\p@ \belowdisplayshortskip 6.5\p@ plus3.5\p@ minus3\p@ \def \leftmargin \leftmargini \parsep 5\p@ plus2.5\p@ minus\p@ \topsep 10\p@ plus4\p@ minus6\p@ \itemsep 5\p@ plus2.5\p@ minus\p@ {\leftmargin \leftmargini \topsep 9\p@ plus3\p@ minus5\p@ \parsep 4.5\p@ plus2\p@ minus\p@ \itemsep \parsep }\belowdisplayskip \abovedisplayskip The microscale (grain-level) distribution of four criterion variables at $t=0.775$ when $u_{\text  {min}}/u_{\text  {max}}=-1$ and the local level at critical 103\textsuperscript  {rd} grain of $R_1$ : (a) maximum total dislocation density $R_1$; (b) mixed-mode fracture based $R_2$; (c) accumulated plastic strain $R_3$; (d) Fatemi-Socie parameter $R_4$; (e) basal Schmid factor distribution in the microstructure; (f) prismatic Schmid factor distribution in the microstructure.\relax }}{16}}
\newlabel{micro-compare}{{5}{16}}
\@writefile{lof}{\contentsline {figure}{\numberline {6}{\ignorespaces \relax \fontsize  {10.95}{13.6}\selectfont  \abovedisplayskip 11\p@ plus3\p@ minus6\p@ \abovedisplayshortskip \z@ plus3\p@ \belowdisplayshortskip 6.5\p@ plus3.5\p@ minus3\p@ \def \leftmargin \leftmargini \parsep 5\p@ plus2.5\p@ minus\p@ \topsep 10\p@ plus4\p@ minus6\p@ \itemsep 5\p@ plus2.5\p@ minus\p@ {\leftmargin \leftmargini \topsep 9\p@ plus3\p@ minus5\p@ \parsep 4.5\p@ plus2\p@ minus\p@ \itemsep \parsep }\belowdisplayskip \abovedisplayskip Crystallographic features in pole figure (PF) and inverse pole figure (IPF) for calibrated Ti-6242S\nobreakspace  {}\cite  {Gockel2016} (a) crystal orientation of critical grains plotted in the (0001) PF; (b) the $\sigma _1$ direction of critical grains plotted in IPF of local crystal frame; (c) crystal orientation of critical grains plotted in the (0001) PF for 5 different displacement ratios and the dark red square means the overlapping of three identical crystal orientations; (d) the $\sigma _1$ direction of critical grains plotted in IPF of local crystal frame; (e) experimental observed local loading axis of the facets\relax }}{17}}
\newlabel{PF_iPF}{{6}{17}}
\citation{Liu2018}
\citation{Kirane2008}
\@writefile{toc}{\contentsline {section}{\numberline {5}Conclusion}{18}}
\@writefile{toc}{\contentsline {section}{\numberline {A}Verification on R3}{18}}
\bibstyle{unsrtnat}
\bibdata{Yang_Zhang_Oskay.bib}
\@writefile{lof}{\contentsline {figure}{\numberline {7}{\ignorespaces \relax \fontsize  {10.95}{13.6}\selectfont  \abovedisplayskip 11\p@ plus3\p@ minus6\p@ \abovedisplayshortskip \z@ plus3\p@ \belowdisplayshortskip 6.5\p@ plus3.5\p@ minus3\p@ \def \leftmargin \leftmargini \parsep 5\p@ plus2.5\p@ minus\p@ \topsep 10\p@ plus4\p@ minus6\p@ \itemsep 5\p@ plus2.5\p@ minus\p@ {\leftmargin \leftmargini \topsep 9\p@ plus3\p@ minus5\p@ \parsep 4.5\p@ plus2\p@ minus\p@ \itemsep \parsep }\belowdisplayskip \abovedisplayskip The boundary condition in (a) DDEHM and (b) CPFE and for R3 computation.\relax }}{19}}
\newlabel{RVE_Boun}{{7}{19}}
\@writefile{lof}{\contentsline {figure}{\numberline {8}{\ignorespaces \relax \fontsize  {10.95}{13.6}\selectfont  \abovedisplayskip 11\p@ plus3\p@ minus6\p@ \abovedisplayshortskip \z@ plus3\p@ \belowdisplayshortskip 6.5\p@ plus3.5\p@ minus3\p@ \def \leftmargin \leftmargini \parsep 5\p@ plus2.5\p@ minus\p@ \topsep 10\p@ plus4\p@ minus6\p@ \itemsep 5\p@ plus2.5\p@ minus\p@ {\leftmargin \leftmargini \topsep 9\p@ plus3\p@ minus5\p@ \parsep 4.5\p@ plus2\p@ minus\p@ \itemsep \parsep }\belowdisplayskip \abovedisplayskip R3 distribution in (a) DDEHM and (b) CPFE at the quarter time in first cycle.\relax }}{19}}
\newlabel{RVE_compare}{{8}{19}}
\@writefile{lof}{\contentsline {figure}{\numberline {9}{\ignorespaces \relax \fontsize  {10.95}{13.6}\selectfont  \abovedisplayskip 11\p@ plus3\p@ minus6\p@ \abovedisplayshortskip \z@ plus3\p@ \belowdisplayshortskip 6.5\p@ plus3.5\p@ minus3\p@ \def \leftmargin \leftmargini \parsep 5\p@ plus2.5\p@ minus\p@ \topsep 10\p@ plus4\p@ minus6\p@ \itemsep 5\p@ plus2.5\p@ minus\p@ {\leftmargin \leftmargini \topsep 9\p@ plus3\p@ minus5\p@ \parsep 4.5\p@ plus2\p@ minus\p@ \itemsep \parsep }\belowdisplayskip \abovedisplayskip Historical R3 value in (a) one cycle and (b) 5 cycles.\relax }}{20}}
\newlabel{local_compare}{{9}{20}}
\@writefile{lof}{\contentsline {figure}{\numberline {10}{\ignorespaces \relax \fontsize  {10.95}{13.6}\selectfont  \abovedisplayskip 11\p@ plus3\p@ minus6\p@ \abovedisplayshortskip \z@ plus3\p@ \belowdisplayshortskip 6.5\p@ plus3.5\p@ minus3\p@ \def \leftmargin \leftmargini \parsep 5\p@ plus2.5\p@ minus\p@ \topsep 10\p@ plus4\p@ minus6\p@ \itemsep 5\p@ plus2.5\p@ minus\p@ {\leftmargin \leftmargini \topsep 9\p@ plus3\p@ minus5\p@ \parsep 4.5\p@ plus2\p@ minus\p@ \itemsep \parsep }\belowdisplayskip \abovedisplayskip Historical maximum R3 value in 50 cycles.\relax }}{20}}
\newlabel{Multi}{{10}{20}}
\bibcite{Kirane2008}{{1}{2008}{{Kirane and Ghosh}}{{}}}
\bibcite{Anahid2013}{{2}{2013}{{Anahid and Ghosh}}{{}}}
\bibcite{Ozturk2017}{{3}{2017}{{Ozturk et~al.}}{{Ozturk, Pilchak, and Ghosh}}}
\bibcite{Sinha2006}{{4}{2006}{{Sinha et~al.}}{{Sinha, Mills, and Williams}}}
\bibcite{Pilchak2011}{{5}{2011}{{Pilchak and Williams}}{{}}}
\bibcite{Pilchak2014}{{6}{2014}{{Pilchak et~al.}}{{Pilchak, Li, and Rokhlin}}}
\bibcite{Sinha2017}{{7}{2017}{{Sinha et~al.}}{{Sinha, Jha, Pilchak, Porter, John, and Larsen}}}
\bibcite{Kartal2014}{{8}{2014}{{Kartal et~al.}}{{Kartal, Cuddihy, and Dunne}}}
\@writefile{toc}{\contentsline {section}{\numberline {6}Acknowledgments}{21}}
\bibcite{Kirane2009}{{9}{2009}{{Kirane et~al.}}{{Kirane, Ghosh, Groeber, and Bhattacharjee}}}
\bibcite{Przybyla2011}{{10}{2011}{{Przybyla and McDowell}}{{}}}
\bibcite{Anahid2011}{{11}{2011}{{Anahid et~al.}}{{Anahid, Samal, and Ghosh}}}
\bibcite{Dunne2007b}{{12}{2007{}}{{Dunne et~al.}}{{Dunne, Wilkinson, and Allen}}}
\bibcite{Mcdowell2007}{{13}{2007}{{McDowell}}{{}}}
\bibcite{McDowell2010}{{14}{2010}{{McDowell and Dunne}}{{}}}
\bibcite{Liu2018}{{15}{2018{}}{{Liu et~al.}}{{Liu, Zhang, Zhu, Hu, and Oskay}}}
\bibcite{Zhang2015}{{16}{2015}{{Zhang and Oskay}}{{}}}
\bibcite{Zhang2017}{{17}{2017}{{Zhang and Oskay}}{{}}}
\bibcite{Dvorak:1992a}{{18}{1992}{{Dvorak}}{{}}}
\bibcite{Ardeljan2014}{{19}{2014}{{Ardeljan et~al.}}{{Ardeljan, Beyerlein, and Knezevic}}}
\bibcite{Knezevic2013a}{{20}{2013}{{Knezevic et~al.}}{{Knezevic, Lebensohn, Cazacu, Revil-Baudard, Proust, Vogel, and Nixon}}}
\bibcite{Fatemi1988}{{21}{1988}{{Fatemi and Socie}}{{}}}
\bibcite{McDowell2005}{{22}{2005}{{McDowell}}{{}}}
\bibcite{Dunne2007}{{23}{2007{}}{{Dunne et~al.}}{{Dunne, Rugg, and Walker}}}
\bibcite{Zhang2016b}{{24}{2016}{{Zhang and Oskay}}{{}}}
\bibcite{Phan2017}{{25}{2017}{{Phan et~al.}}{{Phan, Zhang, Li, and Oskay}}}
\bibcite{Hu2016}{{26}{2016}{{Hu et~al.}}{{Hu, Liu, Zhu, and Ying}}}
\bibcite{Liu2018b}{{27}{2018{}}{{Liu et~al.}}{{Liu, Zhu, Oskay, Hu, Ying, and Wang}}}
\bibcite{Gockel2016}{{28}{2016}{{Gockel et~al.}}{{Gockel, Kolesar, and Rollett}}}
\bibcite{Pilchak2013}{{29}{2013}{{Pilchak}}{{}}}
\bibcite{Pilchak2016}{{30}{2016}{{Pilchak et~al.}}{{Pilchak, Shank, Tucker, Srivatsa, Fagin, and Semiatin}}}
